[gd_scene load_steps=5 format=2]

[ext_resource path="res://Slime/Slime.tscn" type="PackedScene" id=1]
[ext_resource path="res://Layers/Layer.tscn" type="PackedScene" id=2]
[ext_resource path="res://Layers/Decorations/Torch.tscn" type="PackedScene" id=3]
[ext_resource path="res://Layers/Decorations/CellDoor.tscn" type="PackedScene" id=4]

[node name="Layer" instance=ExtResource( 2 )]
background = 2

[node name="Background" parent="." index="0"]
frame = 2

[node name="CellDoor2" parent="Decorations" index="0" instance=ExtResource( 4 )]
position = Vector2( 151, 117 )

[node name="CellDoor3" parent="Decorations" index="1" instance=ExtResource( 4 )]
position = Vector2( 254, 117 )

[node name="CellDoor" parent="Decorations" index="2" instance=ExtResource( 4 )]
position = Vector2( 47, 117 )

[node name="Torch3" parent="Decorations" index="3" instance=ExtResource( 3 )]
position = Vector2( 308, 62 )

[node name="Torch2" parent="Decorations" index="4" instance=ExtResource( 3 )]
position = Vector2( 203, 62 )

[node name="Torch" parent="Decorations" index="5" instance=ExtResource( 3 )]
position = Vector2( 99, 61 )

[node name="Slime" parent="Enemies" index="0" instance=ExtResource( 1 )]
position = Vector2( 99, 118 )

[node name="Slime2" parent="Enemies" index="1" instance=ExtResource( 1 )]
position = Vector2( 203, 118 )
strong = true
