; Engine configuration file.
; It's best edited using the editor UI and not directly,
; since the parameters that go here are not all obvious.
;
; Format:
;   [section] ; section goes between []
;   param=value ; assign values to parameters

config_version=4

_global_script_classes=[ {
"base": "Node2D",
"class": "Card",
"language": "GDScript",
"path": "res://Cards/Base.gd"
}, {
"base": "Node2D",
"class": "Slime",
"language": "GDScript",
"path": "res://Slime/Slime.gd"
}, {
"base": "Node",
"class": "SlimeState",
"language": "GDScript",
"path": "res://Slime/States/Base.gd"
}, {
"base": "Node2D",
"class": "Snake",
"language": "GDScript",
"path": "res://Snake/Snake.gd"
}, {
"base": "Node2D",
"class": "SnakeProjectile",
"language": "GDScript",
"path": "res://Snake/Projectile.gd"
}, {
"base": "Node",
"class": "SnakeState",
"language": "GDScript",
"path": "res://Snake/States/Base.gd"
}, {
"base": "Node2D",
"class": "Spider",
"language": "GDScript",
"path": "res://Spider/Spider.gd"
}, {
"base": "Node2D",
"class": "SpiderProjectile",
"language": "GDScript",
"path": "res://Spider/Projectile.gd"
}, {
"base": "Node",
"class": "SpiderState",
"language": "GDScript",
"path": "res://Spider/States/Base.gd"
}, {
"base": "Node2D",
"class": "Warrior",
"language": "GDScript",
"path": "res://Warrior/Warrior.gd"
}, {
"base": "Node2D",
"class": "WarriorEffect",
"language": "GDScript",
"path": "res://Warrior/Effects/Base.gd"
}, {
"base": "Node2D",
"class": "WarriorPerk",
"language": "GDScript",
"path": "res://Warrior/Perks/Base.gd"
}, {
"base": "Node",
"class": "WarriorState",
"language": "GDScript",
"path": "res://Warrior/States/Base.gd"
} ]
_global_script_class_icons={
"Card": "",
"Slime": "",
"SlimeState": "",
"Snake": "",
"SnakeProjectile": "",
"SnakeState": "",
"Spider": "",
"SpiderProjectile": "",
"SpiderState": "",
"Warrior": "",
"WarriorEffect": "",
"WarriorPerk": "",
"WarriorState": ""
}

[application]

config/name="Ludum Dare 48 by sedna and gagapete"
run/main_scene="res://Game.tscn"
config/icon="res://icon.png"

[autoload]

Autoload="*res://Autoload.gd"

[display]

window/size/width=360
window/size/height=360
window/stretch/mode="2d"
window/stretch/aspect="keep"

[importer_defaults]

texture={
"compress/bptc_ldr": 0,
"compress/hdr_mode": 0,
"compress/lossy_quality": 0.7,
"compress/mode": 0,
"compress/normal_map": 0,
"detect_3d": true,
"flags/anisotropic": false,
"flags/filter": false,
"flags/mipmaps": false,
"flags/repeat": 0,
"flags/srgb": 2,
"process/HDR_as_SRGB": false,
"process/fix_alpha_border": true,
"process/invert_color": false,
"process/premult_alpha": false,
"size_limit": 0,
"stream": false,
"svg/scale": 1.0
}

[input]

restart={
"deadzone": 0.5,
"events": [ Object(InputEventKey,"resource_local_to_scene":false,"resource_name":"","device":0,"alt":false,"shift":false,"control":false,"meta":false,"command":false,"pressed":false,"scancode":16777217,"unicode":0,"echo":false,"script":null)
 ]
}
fullscreen={
"deadzone": 0.5,
"events": [ Object(InputEventKey,"resource_local_to_scene":false,"resource_name":"","device":0,"alt":false,"shift":false,"control":false,"meta":false,"command":false,"pressed":false,"scancode":16777254,"unicode":0,"echo":false,"script":null)
 ]
}
screenshot={
"deadzone": 0.5,
"events": [ Object(InputEventKey,"resource_local_to_scene":false,"resource_name":"","device":0,"alt":false,"shift":false,"control":false,"meta":false,"command":false,"pressed":false,"scancode":16777252,"unicode":0,"echo":false,"script":null)
 ]
}

[layer_names]

2d_physics/layer_1="Solid obstacles"
2d_physics/layer_2="Warrior targets"
2d_physics/layer_3="Enemy targets"

[rendering]

quality/driver/driver_name="GLES2"
2d/snapping/use_gpu_pixel_snap=true
vram_compression/import_etc=true
vram_compression/import_etc2=false
environment/default_clear_color=Color( 0, 0, 0, 1 )
environment/default_environment="res://default_env.tres"
quality/dynamic_fonts/use_oversampling=false
